…
#making a data frame of characters (i.e. the TV show characters)
name <- c("frasier", "daphne", "niles", "roz", "martin", 
          "eddie", "bulldog", "kenny", "gil", "noel", 
          "gertrude", "donny", "lilith", "bebe", "mel",
          "ronee", "alice", "julia", "frederick", "simon",
          "lana", "sherry", "kirby", "charlotte")
start_year <- 1940
end_year <- 1990
df <- data.frame(name, start_year, end_year, stringsAsFactors=FALSE)
main_cast <- df %>% slice(1:5)

gender_df(df, method = "ssa", name_col = "name", year_col = c("start_year", "end_year"))

## # A tibble: 23 x 6
##    name      proportion_male proportion_female gender year_min year_max
##  * <chr>               <dbl>             <dbl> <chr>     <dbl>    <dbl>
##  1 alice              0.0033            0.997  female     1940     1990
##  2 bebe               0                 1      female     1940     1990
##  3 charlotte          0.0026            0.997  female     1940     1990
##  4 daphne             0.0004            1.00   female     1940     1990
##  5 donny              0.996             0.0039 male       1940     1990
##  6 eddie              0.959             0.0414 male       1940     1990
##  7 frasier            1                 0      male       1940     1990
##  8 frederick          0.995             0.0052 male       1940     1990
##  9 gertrude           0.0008            0.999  female     1940     1990
## 10 gil                1                 0      male       1940     1990
## # ... with 13 more rows
…
